<svg id="Layer_1" data-name="Layer 1" xmlns="http://www.w3.org/2000/svg" width="13.65" height="13.65" viewBox="0 0 13.65 13.65">
  <title>close-icon</title>
  <polygon points="13.65 2.34 11.31 0 6.82 4.48 2.34 0 0 2.34 4.48 6.82 0 11.31 2.34 13.65 6.82 9.16 11.31 13.65 13.65 11.31 9.16 6.82 13.65 2.34" fill="#0c2a35"/>
</svg>
