<svg id="Layer_1" data-name="Layer 1" xmlns="http://www.w3.org/2000/svg" width="62.7" height="62.7" viewBox="0 0 62.7 62.7">
  <title>college</title>
  <g>
    <circle cx="31.35" cy="31.35" r="31.35" fill="#0a4954"/>
    <g>
      <g>
        <path d="M21.65,29.83H41a0,0,0,0,1,0,0v1.08a5.39,5.39,0,0,1-5.39,5.39H27a5.39,5.39,0,0,1-5.39-5.39V29.83A0,0,0,0,1,21.65,29.83Z" fill="#53b0d2"/>
        <rect x="24.19" y="36.01" width="14.33" height="2.1" rx="1.05" ry="1.05" fill="#53b0d2"/>
        <polygon points="29.65 50.48 32.39 50.48 35.06 37.35 27.64 37.35 29.65 50.48" fill="#53b0d2"/>
      </g>
      <path d="M29.73,18.38c-0.1.09-.36,0.2-0.42,0a1.05,1.05,0,0,1,0-.42c0-.36.12-0.71,0.19-1.07A3.58,3.58,0,0,0,29,13.78s0,1.28-1.85,3.37c-2.57,2.9-3,7.76.45,10.16a6.29,6.29,0,0,0,1.88.89c2.22,0.62,5,.45,6.69-1.27,2.08-2.1,1.88-5.78.68-8.25a12.16,12.16,0,0,1-.21,1.86,2.72,2.72,0,0,1-.36,1.17c-0.32.35-.93,0.52-1-0.23a2.22,2.22,0,0,1,.32-1c0.67-1.48.25-3.63-.29-5.1a8,8,0,0,0-2.58-3.56,7,7,0,0,0-1.53-1S32,16.31,29.73,18.38Z" fill="#fff"/>
    </g>
  </g>
</svg>
